Análise da base de dados no IMDB
…
movies %>%
  group_by(country) %>%
  summarize(meanbudget_bycountry = mean(budget_x),
            meangrossprofit_bycountry = mean(gross_profit),
            meanrevenue_bycountry = mean(revenue),
            maxbudget_bycountry = max(budget_x),
            maxrevenue_bycountry = max(revenue),
            maxgrossprofit_bycountry = max(gross_profit),
            meanscore_bycountry = mean(score),
            maxscore_bycountry = max(score))%>%
  ungroup

## # A tibble: 56 × 9
##    country meanbudget_bycountry meangrossprofit_bycountry meanrevenue_bycountry
##    <chr>                  <dbl>                     <dbl>                 <dbl>
##  1 AR                 92392583.                364168202.            456560785.
##  2 AT                 55500000                  16782768.             72282768.
##  3 AU                 53071421.                140053458.            193124879.
##  4 BE                 61462038.                204730808.            266192846.
##  5 BO                111940000                 526392463.            638332463.
##  6 BR                 94189891.                289364838.            383554728.
##  7 CA                 59195360.                196430670.            255626030.
##  8 CH                 49600000                 328709416.            378309416.
##  9 CL                 89966667.                286172967.            376139634.
## 10 CN                 65231059.                237709079.            302940138.
## # ℹ 46 more rows
## # ℹ 5 more variables: maxbudget_bycountry <dbl>, maxrevenue_bycountry <dbl>,
## #   maxgrossprofit_bycountry <dbl>, meanscore_bycountry <dbl>,
## #   maxscore_bycountry <dbl>
…
#Z-Scores

movies_numeric_standardized <-
  movies_numeric %>%
  mutate(zscore_budget = (budget_x - mean(budget_x))/sd(budget_x),
         zscore_revenue = (revenue - mean(revenue))/sd(revenue),
         zscore_score = (score - mean(score))/sd(score),
         zscore_grossprofit = (gross_profit - mean(gross_profit))/sd(gross_profit)) %>%
  select(zscore_budget, zscore_revenue, zscore_score, zscore_grossprofit)
      
movies_numeric_standardized

## # A tibble: 9,967 × 4
##    zscore_budget zscore_revenue zscore_score zscore_grossprofit
##            <dbl>          <dbl>        <dbl>              <dbl>
##  1         0.233       0.0589          0.816             0.0159
##  2         7.33        7.36            1.32              6.84  
##  3         0.693       1.67            1.12              1.77  
##  4        -0.922      -0.788           0.516            -0.702 
##  5         0.270       0.306          -0.384             0.293 
##  6        -0.504      -0.625           0.116            -0.607 
##  7         0.693       0.343           1.52              0.241 
##  8         0.509       0.815           1.82              0.825 
##  9         0.159      -0.000569       -0.584            -0.0362
## 10         1.05        0.835          -0.684             0.727 
## # ℹ 9,957 more rows
…
